{
  "properties": [
    {
      "name": "demo.setDemoData",
      "type": "java.lang.Boolean",
      "description": "Determines if the demo set is loaded when the application starts."
  },
    {
      "name": "ordinaCodeKids.sendEmails",
      "type": "java.lang.Boolean",
      "description": "Determines if emails should be send."
    }
] }
